{
  "Id":"PolicyId2",
  "Version":"2012-10-17",
  "Statement":[
    {
      "Sid":"AllowIPmix",
      "Effect":"Allow",
      "Principal":"*",
      "Action":"s3:*",
      "Resource":"arn:aws:s3:::dirtassess3/*",
      "Condition": {
        "IpAddress": {
          "aws:SourceIp": [
            "77.108.144.180/32",
            "12.0.0.0/26"
          ]
        }
      }
    }
  ]
}
